<svg xmlns="http://www.w3.org/2000/svg" viewBox="0 0 22.605 17.17">
  <defs>
    <style>
      .cls-1 {
        fill: #fff;
      }
    </style>
  </defs>
  <g id="logout" transform="translate(0 -58.95)">
    <g id="Group_351" data-name="Group 351" transform="translate(0 58.95)">
      <path id="Path_127" data-name="Path 127" class="cls-1" d="M0,61.813V73.256a2.869,2.869,0,0,0,2.863,2.863h9.249a2.869,2.869,0,0,0,2.863-2.863V71.4a.567.567,0,0,0-1.134,0v1.853a1.737,1.737,0,0,1-1.734,1.734H2.863A1.737,1.737,0,0,1,1.13,73.256V61.813A1.737,1.737,0,0,1,2.863,60.08h9.249a1.737,1.737,0,0,1,1.734,1.734v1.853a.567.567,0,1,0,1.134,0V61.813a2.869,2.869,0,0,0-2.863-2.863H2.863A2.866,2.866,0,0,0,0,61.813Z" transform="translate(0 -58.95)"/>
      <path id="Path_128" data-name="Path 128" class="cls-1" d="M214.557,157.65a.568.568,0,0,0,.8,0l3.868-3.868a.562.562,0,0,0,0-.8l-3.868-3.868a.564.564,0,0,0-.8.8l2.9,2.9h-10.6a.567.567,0,1,0,0,1.134h10.595l-2.9,2.9A.557.557,0,0,0,214.557,157.65Z" transform="translate(-196.789 -144.801)"/>
    </g>
  </g>
</svg>
